…
```
## Warning: x has unmatched sets of joining values: 
##  # A tibble: 124 x 5
##    MYEAR STATION_CODE LATIN_NAME     TISSUE_NAME     SAMPLE_NO2
##    <dbl> <chr>        <chr>          <chr>                <dbl>
##  1  2018 I969         Mytilus edulis Whole soft body          2
##  2  2018 I969         Mytilus edulis Whole soft body          3
##  3  2018 I969         Mytilus edulis Whole soft body          1
##  4  2018 I965         Mytilus edulis Whole soft body          3
##  5  2018 I965         Mytilus edulis Whole soft body          1
##  6  2018 I965         Mytilus edulis Whole soft body          2
##  7  2018 I964         Mytilus edulis Whole soft body          1
##  8  2018 I964         Mytilus edulis Whole soft body          2
##  9  2018 I964         Mytilus edulis Whole soft body          3
## 10  2018 30B          Gadus morhua   Lever                   11
## # … with 114 more rows
```
…
