…
```r
line_header <- search_lineno(df_try, 1, "Fisknr")
dat <- read_excel(paste0(datafolder, "/", fn), skip = line_header - 1)

# If file has a hole (empty row) in the data, we delete data from the first hole
first_empty <- which(is.na(dat$Fisknr))[1]
if (!is.na(first_empty))
  dat <- dat[1:(first_empty-1),]

dat
```

```
## # A tibble: 30 × 24
##    Fisknr `Lengde (cm)` `Vekt (g)` `Filetprøve (g)` `Levervekt (g)` `Leverprøve (g)` Leverfarge `Kjønn (M/F)` `Gonadevekt (g)` `M-kode` `otolitt antall` blod  galle
##    <chr>          <dbl>      <dbl> <chr>                      <dbl>            <dbl> <chr>      <chr>         <lgl>            <lgl>               <dbl> <lgl> <lgl>
##  1 1               32          416 30                           7.8              7.8 G          F             NA               NA                      2 NA    NA   
##  2 2               32.5        318 26.3                         1.5              1.5 G          F             NA               NA                      2 NA    NA   
##  3 3               33.5        486 32.9                         9.6              9.6 B          F             NA               NA                      2 NA    NA   
##  4 4               33.5        406 30.3                         6.9              6.9 G          F             NA               NA                      2 NA    NA   
##  5 5               34          507 31.2                         9.4              9.4 G          F             NA               NA                      2 NA    NA   
##  6 6               35          520 30.5                         9.9              9.9 G          F             NA               NA                      2 NA    NA   
##  7 7               35          498 30.5                        13.2             13.2 G          F             NA               NA                      2 NA    NA   
##  8 8               35          380 26                           5.7              5.7 G          F             NA               NA                      2 NA    NA   
##  9 9               35.5        390 26.6                         3.2              3.2 B          F             NA               NA                      2 NA    NA   
## 10 10              35.5        484 30.1                         6.9              6.9 G          F             NA               NA                      2 NA    NA   
## # … with 20 more rows, and 11 more variables: leverbit <lgl>, Kommentar <lgl>, alder <lgl>, `otolittform kyst/vandre` <lgl>, hudfarge <lgl>, `dato fangst` <chr>,
## #   `sted fangst` <lgl>, `del av blandprøvenr` <dbl>, `mage+tarm til plast` <lgl>, `Leverprøve kontollveid (ja /nei)` <lgl>, `2 g lever til siloksaner` <lgl>
```
…
